bg52_1_Messung_MRS_PGACC	0.013	46	297.138	43300	0.69	0.67	3.344	5%	0.371	6.938	2%	0.769	2.092	7%	0.232	9.030	3%	1.001	2.709	6%	0.300	9.078	2%	1.007			
bg52_2362	20131112	142105.187000	pgACC_svs_verse_te20_tm10	3000.000000	20.000000	128.000000	10.000000	20.000000	15.000000			bg52_2_Messung_MRS_PGACC	0.011	43	297.138	43300	0.69	0.67	2.883	6%	0.326	6.413	3%	0.725	2.445	7%	0.276	8.858	3%	1.001	1.212	13%	0.137	9.343	1%	1.056			
bg52_2364	20131112	173203.703000	pgACC_svs_verse_te20_tm10	3000.000000	20.000000	128.000000	10.000000	20.000000	15.000000			bg52_3_Messung_MRS_PGACC	0.011	47	297.138	43300	0.69	0.67	3.754	5%	0.390	3.724	5%	0.387	1.559	10%	0.162	5.284	5%	0.549	0.912	15%	9.5E-02	9.172	2%	0.953			
bg52_2367	20131113	160316.859000	pgACC_svs_verse_te20_tm10	3000.000000	20.000000	128.000000	10.000000	20.000000	15.000000			bh27_1_Messung_MRS_PGACC	0.016	50	297.138	43300	0.69	0.67	3.020	6%	0.302	4.769	4%	0.477	1.149	13%	0.115	5.918	3%	0.591	1.601	7%	0.160	10.223	1%	1.022			
bh27_1740	20121029	142805.109000	pgACC_svs_verse_te20_tm10	3000.000000	20.000000	128.000000	10.000000	20.000000	15.000000			bh27_2_Messung_MRS_PGACC	0.043	45	297.138	43300	0.69	0.67	3.262	10%	0.409	4.946	5%	0.619	2.766	8%	0.346	7.712	5%	0.966	1.024	16%	0.128	8.977	3%	1.124			
bh27_1742	20121029	171421.593000	pgACC_svs_verse_te20_tm10	3000.000000	20.000000	128.000000	10.000000	20.000000	15.000000			bh27_3_Messung_MRS_PGACC	0.022	35	297.138	43300	0.69	0.67	2.999	7%	0.327	5.742	3%	0.627	2.132	9%	0.233	7.874	3%	0.860	0.184	91%	2.0E-02	9.102	2%	0.994			
bh27_1746	20121030	155507.390000	pgACC_svs_verse_te20_tm10	3000.000000	20.000000	128.000000	10.000000	20.000000	15.000000			bh98_1_Messung_MRS_PGACC	0.016	51	297.138	43300	0.69	0.67	3.174	4%	0.375	5.723	2%	0.675	1.471	9%	0.174	7.194	3%	0.849	1.277	10%	0.151	9.071	1%	1.071			
bh98_2244	20130806	124701.328000	pgACC_svs_verse_te20_tm10	3000.000000	20.000000	128.000000	10.000000	20.000000	15.000000			bh98_2_Messung_MRS_PGACC	0.016	48	297.138	43300	0.69	0.67	3.108	5%	0.383	5.628	3%	0.693	2.399	6%	0.296	8.027	3%	0.989	1.327	10%	0.164	8.734	1%	1.076			
bh98_2245	20130806	161035.359000	pgACC_svs_verse_te20_tm10	3000.000000	20.000000	128.000000	10.000000	20.000000	15.000000			bh98_3_Messung_MRS_PGACC	0.011	46	297.138	43300	0.69	0.67	3.228	6%	0.378	5.794	3%	0.678	1.377	12%	0.161	7.170	3%	0.840	1.617	9%	0.189	8.517	1%	0.997			
bh98_2248	20130807	143844.328000	pgACC_svs_verse_te20_tm10	3000.000000	20.000000	128.000000	10.000000	20.000000	15.000000			bu45_1_Messung_MRS_PGACC	0.016	47	297.138	43300	0.69	0.67	3.774	4%	0.427	6.637	2%	0.751	1.699	8%	0.192	8.336	3%	0.943	1.937	7%	0.219	8.197	1%	0.927			
bu45_2361	20131112	125924.062000	pgACC_svs_verse_te20_tm10	3000.000000	20.000000	128.000000	10.000000	20.000000	15.000000			bu45_2_Messung_MRS_PGACC	0.016	42	297.138	43300	0.69	0.67	3.242	5%	0.382	5.074	4%	0.597	2.784	6%	0.328	7.858	3%	0.925	1.087	12%	0.128	8.123	2%	0.956			
bu45_2363	20131112	155423.984000	pgACC_svs_verse_te20_tm10	3000.000000	20.000000	128.000000	10.000000	20.000000	15.000000			bu45_3_Messung_MRS_PGACC	0.011	46	297.138	43300	0.69	0.67	3.475	5%	0.358	5.912	3%	0.609	2.084	8%	0.215	7.996	3%	0.824	1.255	11%	0.129	8.819	1%	0.909			
bu45_2366	20131113	144452.546000	pgACC_svs_verse_te20_tm10	3000.000000	20.000000	128.000000	10.000000	20.000000	15.000000			ce22_1_Messung_MRS_PGACC	0.016	48	297.138	43300	0.69	0.67	3.496	6%	0.373	5.938	3%	0.633	2.843	6%	0.303	8.781	3%	0.936	1.238	11%	0.132	8.272	2%	0.882			
ce22_1804	20121127	125048.484000	pgACC_svs_verse_te20_tm10	3000.000000	20.000000	128.000000	10.000000	20.000000	15.000000			ce22_2_Messung_MRS_PGACC	0.022	51	297.138	43300	0.69	0.67	3.618	5%	0.372	5.070	3%	0.521	2.349	6%	0.241	7.418	3%	0.762	1.156	10%	0.119	9.862	1%	1.013			
ce22_1805	20121127	152210.171000	pgACC_svs_verse_te20_tm10	3000.000000	20.000000	128.000000	10.000000	20.000000	15.000000			ce22_3_Messung_MRS_PGACC	0.022	39	297.138	43300	0.69	0.67	3.822	6%	0.398	6.204	4%	0.645	2.360	8%	0.245	8.564	4%	0.891	2.021	8%	0.210	8.715	3%	0.907			
ce22_1812	20121128	150422.859000	pgACC_svs_verse_te20_tm10	3000.000000	20.000000	128.000000	10.000000	20.000000	15.000000			dp20_1_Messung_MRS_PGACC	0.027	49	297.138	43300	0.69	0.67	4.443	7%	0.456	5.766	3%	0.591	2.800	6%	0.287	8.566	3%	0.878	1.482	9%	0.152	8.311	3%	0.852			
dp20_2346	20131022	133453.625000	pgACC_svs_verse_te20_tm10	3000.000000	20.000000	128.000000	10.000000	20.000000	15.000000			dp20_2_Messung_MRS_PGACC	0.016	49	297.138	43300	0.69	0.67	3.919	5%	0.395	5.722	3%	0.577	2.409	7%	0.243	8.131	3%	0.819	1.715	7%	0.173	8.227	2%	0.829			
dp20_2347	20131022	163502.421000	pgACC_svs_verse_te20_tm10	3000.000000	20.000000	128.000000	10.000000	20.000000	15.000000			dp20_3_Messung_MRS_PGACC	0.027	47	297.138	43300	0.69	0.67	4.886	6%	0.478	5.643	3%	0.552	2.608	7%	0.255	8.251	3%	0.807	0.975	13%	9.5E-02	8.554	3%	0.837			
dp20_2348	20131023	144756.859000	pgACC_svs_verse_te20_tm10	3000.000000	20.000000	128.000000	10.000000	20.000000	15.000000			dq56_1_Messung_MRS_PGACC	0.016	47	297.138	43300	0.69	0.67	3.663	5%	0.403	6.121	3%	0.673	2.170	9%	0.239	8.291	4%	0.912	2.614	6%	0.288	8.636	2%	0.950			
dq56_2199	20130718	104952.515000	pgACC_svs_verse_te20_tm10	3000.000000	20.000000	128.000000	10.000000	20.000000	15.000000			dq56_2_Messung_MRS_PGACC	0.027	40	297.138	43300	0.69	0.67	3.060	6%	0.339	5.300	3%	0.587	3.457	5%	0.383	8.757	3%	0.970	1.400	11%	0.155	7.744	2%	0.858			
dq56_2201	20130718	134004.031000	pgACC_svs_verse_te20_tm10	3000.000000	20.000000	128.000000	10.000000	20.000000	15.000000			dq56_3_Messung_MRS_PGACC	0.027	36	297.138	43300	0.69	0.67	2.202	20%	0.247	4.285	6%	0.481	4.828	6%	0.542	9.113	4%	1.023	0.000	999%	0.000	7.575	2%	0.851			
dq56_2204	20130719	123646.234000	pgACC_svs_verse_te20_tm10	3000.000000	20.000000	128.000000	10.000000	20.000000	15.000000			dq74_1_Messung_MRS_PGACC	0.032	34	297.138	43300	0.69	0.67	3.191	10%	0.329	4.254	7%	0.439	2.648	8%	0.273	6.902	4%	0.712	1.881	10%	0.194	7.656	4%	0.790			
dg74_2257	20130813	140727.531000	pgACC_svs_verse_te20_tm10	3000.000000	20.000000	128.000000	10.000000	20.000000	15.000000			dq74_2_Messung_MRS_PGACC	0.022	41	297.138	43300	0.69	0.67	3.063	7%	0.364	4.986	3%	0.593	1.188	14%	0.141	6.175	4%	0.734	1.291	10%	0.153	8.225	2%	0.978			
dg74_2259	20130813	172529.453000	pgACC_svs_verse_te20_tm10	3000.000000	20.000000	128.000000	10.000000	20.000000	15.000000			dq74_3_Messung_MRS_PGACC	0.032	41	297.138	43300	0.69	0.67	3.894	15%	0.451	3.834	6%	0.444	1.848	9%	0.214	5.682	4%	0.658	0.992	14%	0.115	8.682	3%	1.005			
dg74_2261	20130814	161326.593000	pgACC_svs_verse_te20_tm10	3000.000000	20.000000	128.000000	10.000000	20.000000	15.000000			du02_1_Messung_MRS_PGACC	0.016	58	297.138	43300	0.69	0.67	3.058	5%	0.347	5.690	2%	0.645	2.188	6%	0.248	7.878	3%	0.893	1.444	8%	0.164	9.042	1%	1.024			
du02_1954	20130219	142627.078000	pgACC_svs_verse_te20_tm10	3000.000000	20.000000	128.000000	10.000000	20.000000	15.000000			du02_2_Messung_MRS_PGACC	0.011	59	297.138	43300	0.69	0.67	3.130	5%	0.357	5.156	3%	0.588	2.708	6%	0.309	7.864	3%	0.897	1.438	8%	0.164	9.730	1%	1.110			
du02_1955	20130219	174333.312000	pgACC_svs_verse_te20_tm10	3000.000000	20.000000	128.000000	10.000000	20.000000	15.000000			du02_3_Messung_MRS_PGACC	0.016	59	297.138	43300	0.69	0.67	3.359	5%	0.380	5.244	3%	0.593	2.608	6%	0.295	7.853	3%	0.888	1.067	12%	0.121	9.598	1%	1.086			
du02_1958	20130220	160756.984000	pgACC_svs_verse_te20_tm10	3000.000000	20.000000	128.000000	10.000000	20.000000	15.000000			dw28_1_Messung_MRS_PGACC	0.011	48	297.138	43300	0.69	0.67	3.289	6%	0.319	4.926	3%	0.477	0.401	35%	3.9E-02	5.327	4%	0.516	1.757	7%	0.170	8.824	2%	0.855			
dw28_2178	20130709	141536.343000	pgACC_svs_verse_te20_tm10	3000.000000	20.000000	128.000000	10.000000	20.000000	15.000000			dw28_2_Messung_MRS_PGACC	0.016	43	297.138	43300	0.69	0.67	3.572	5%	0.393	4.959	4%	0.545	2.662	6%	0.293	7.621	3%	0.838	1.209	10%	0.133	7.987	3%	0.878			
dw28_2180	20130709	172054.609000	pgACC_svs_verse_te20_tm10	3000.000000	20.000000	128.000000	10.000000	20.000000	15.000000			dw28_3_Messung_MRS_PGACC	0.016	49	297.138	43300	0.69	0.67	3.265	5%	0.363	4.989	3%	0.554	1.090	13%	0.121	6.079	3%	0.675	1.966	6%	0.218	9.148	2%	1.016			
dw28_2186	20130710	163844.765000	pgACC_svs_verse_te20_tm10	3000.000000	20.000000	128.000000	10.000000	20.000000	15.000000			em60_1_Messung_MRS_PGACC	0.016	38	297.138	43300	0.69	0.67	4.026	5%	0.420	6.243	3%	0.651	2.624	7%	0.274	8.867	4%	0.924	1.789	8%	0.187	8.370	3%	0.873			
em60_2354	20131105	153127.140000	pgACC_svs_verse_te20_tm10	3000.000000	20.000000	128.000000	10.000000	20.000000	15.000000			em60_2_Messung_MRS_PGACC	0.011	41	297.138	43300	0.69	0.67	3.999	5%	0.396	6.302	3%	0.624	2.155	9%	0.213	8.457	3%	0.837	1.591	10%	0.157	9.472	2%	0.938			
em60_2355	20131105	181744.656000	pgACC_svs_verse_te20_tm10	3000.000000	20.000000	128.000000	10.000000	20.000000	15.000000			em60_3_Messung_MRS_PGACC	0.016	46	297.138	43300	0.69	0.67	3.693	5%	0.363	5.231	3%	0.514	3.758	4%	0.369	8.988	3%	0.883	2.356	6%	0.231	9.119	2%	0.895			
em60_2357	20131106	140924.109000	pgACC_svs_verse_te20_tm10	3000.000000	20.000000	128.000000	10.000000	20.000000	15.000000			ew27_1_Messung_MRS_PGACC	0.011	38	297.138	43300	0.69	0.67	4.085	5%	0.424	6.350	3%	0.659	1.060	17%	0.110	7.411	4%	0.769	1.608	10%	0.167	9.101	2%	0.944			
ew27_2266	20130819	140810.531000	pgACC_svs_verse_te20_tm10	3000.000000	20.000000	128.000000	10.000000	20.000000	15.000000			ew27_2_Messung_MRS_PGACC	0.016	46	297.138	43300	0.69	0.67	4.121	4%	0.456	5.444	3%	0.603	1.965	8%	0.218	7.409	3%	0.821	1.349	9%	0.149	8.982	2%	0.995			
ew27_2267	20130819	171021.421000	pgACC_svs_verse_te20_tm10	3000.000000	20.000000	128.000000	10.000000	20.000000	15.000000			ew27_3_Messung_MRS_PGACC	0.016	45	297.138	43300	0.69	0.67	3.871	5%	0.412	5.708	3%	0.607	1.801	9%	0.191	7.508	3%	0.798	1.223	11%	0.130	8.764	2%	0.932			
ew27_2269	20130820	155523.406000	pgACC_svs_verse_te20_tm10	3000.000000	20.000000	128.000000	10.000000	20.000000	15.000000			ez57_1_Messung_MRS_PGACC	0.016	31	297.138	43300	0.69	0.67	3.908	7%	0.385	5.750	4%	0.566	2.478	10%	0.244	8.228	4%	0.810	0.000	999%	0.000	7.393	3%	0.728			
ez57_1688	20120911	164356.718000	pgacc_svs_verse_te20_tm10	3000.000000	20.000000	128.000000	10.000000	20.000000	15.000000			ez57_1688	20120911	154716.390000	pgacc_svs_verse_te20_tm10	3000.000000	20.000000	128.000000	10.000000	25.000000	15.000000			ez57_2_Messung_MRS_PGACC	0.040	29	297.138	43300	0.69	0.67	5.775	7%	0.457	8.238	4%	0.651	4.474	9%	0.354	12.713	5%	1.005	1.943	16%	0.154	8.622	4%	0.682			
ez57_1689	20120911	190022.390000	pgacc_svs_verse_te20_tm10	3000.000000	20.000000	128.000000	10.000000	20.000000	15.000000			ez57_3_Messung_MRS_PGACC	0.032	28	297.138	43300	0.69	0.67	5.496	8%	0.660	5.960	5%	0.715	3.180	7%	0.382	9.140	4%	1.097	1.625	15%	0.195	6.708	4%	0.805			
ez57_1690	20120912	164530.484000	pgacc_svs_verse_te20_tm10	3000.000000	20.000000	128.000000	10.000000	20.000000	15.000000			fb03_1_Messung_MRS_PGACC	0.038		297.138	43300	0.69	0.67	0.257	41%	0.476	0.445	17%	0.824	0.317	19%	0.588	0.762	17%	1.412				0.762	16%	1.412			
fb03_2335	20131015	124610.765000	pgACC_svs_verse_te20_tm10	3000.000000	20.000000	128.000000	10.000000	20.000000	15.000000			fb03_2_Messung_MRS_PGACC	0.022	46	297.138	43300	0.69	0.67	3.680	6%	0.388	6.339	2%	0.669	1.785	10%	0.188	8.124	3%	0.857	1.197	13%	0.126	8.552	3%	0.902			
fb03_2337	20131015	153347.562000	pgACC_svs_verse_te20_tm10	3000.000000	20.000000	128.000000	10.000000	20.000000	15.000000			fb03_3_Messung_MRS_PGACC	0.022	48	297.138	43300	0.69	0.67	3.110	7%	0.337	5.796	3%	0.629	1.018	16%	0.110	6.814	3%	0.739	1.100	11%	0.119	7.724	5%	0.838			
fb03_2340	20131016	143923.421000	pgACC_svs_verse_te20_tm10	3000.000000	20.000000	128.000000	10.000000	20.000000	15.000000			fo59_1_Messung_MRS_PGACC	0.011	47	297.138	43300	0.69	0.67	3.049	5%	0.378	6.481	2%	0.803	2.144	7%	0.266	8.625	3%	1.068	1.630	9%	0.202	8.636	2%	1.070			
fo59_2001	20130402	150715.203000	pgACC_svs_verse_te20_tm10	3000.000000	20.000000	128.000000	10.000000	20.000000	15.000000			fo59_2_Messung_MRS_PGACC	0.016	47	297.138	43300	0.69	0.67	3.152	5%	0.350	4.973	4%	0.552	2.235	7%	0.248	7.208	3%	0.800	1.033	12%	0.115	8.645	1%	0.960			
fo59_2003	20130402	182717.375000	pgACC_svs_verse_te20_tm10	3000.000000	20.000000	128.000000	10.000000	20.000000	15.000000			fo59_3_Messung_MRS_PGACC	0.016	43	297.138	43300	0.69	0.67	2.990	6%	0.365	4.852	5%	0.592	2.501	7%	0.305	7.353	3%	0.897	1.225	11%	0.149	8.760	2%	1.069			
fo59_2007	20130403	172406.468000	pgACC_svs_verse_te20_tm10	3000.000000	20.000000	128.000000	10.000000	20.000000	15.000000			fp65_1_Messung_MRS_PGACC	0.022	34	297.138	43300	0.69	0.67	3.926	6%	0.373	5.976	3%	0.568	2.060	9%	0.196	8.036	4%	0.764	0.000	999%	0.000	8.212	2%	0.781			
fp65_2256	20130813	124605.343000	pgACC_svs_verse_te20_tm10	3000.000000	20.000000	128.000000	10.000000	20.000000	15.000000			fp65_2_Messung_MRS_PGACC	0.032	36	297.138	43300	0.69	0.67	4.144	6%	0.450	5.625	4%	0.611	2.947	6%	0.320	8.572	3%	0.930	2.227	6%	0.242	7.593	3%	0.824			
fp65_2258	20130813	155703.187000	pgACC_svs_verse_te20_tm10	3000.000000	20.000000	128.000000	10.000000	20.000000	15.000000			fp65_3_Messung_MRS_PGACC	0.022	35	297.138	43300	0.69	0.67	4.944	6%	0.554	5.528	3%	0.619	0.751	24%	8.4E-02	6.278	5%	0.703	2.796	6%	0.313	7.045	4%	0.789			
fp65_2260	20130814	145526.265000	pgACC_svs_verse_te20_tm10	3000.000000	20.000000	128.000000	10.000000	20.000000	15.000000			fy78_1_Messung_MRS_PGACC	0.011	51	297.138	43300	0.69	0.67	3.438	5%	0.391	5.089	4%	0.579	1.840	9%	0.209	6.929	3%	0.789	1.609	8%	0.183	8.941	1%	1.018			
fy78_2108	20130924	123921.750000	pgACC_svs_verse_te20_tm10	3000.000000	20.000000	128.000000	10.000000	20.000000	15.000000			fy78_2_Messung_MRS_PGACC	0.011	48	297.138	43300	0.69	0.67	2.909	5%	0.326	5.038	3%	0.564	1.949	8%	0.218	6.987	3%	0.782	1.485	8%	0.166	8.662	2%	0.970			
fy78_2109	20130924	153757.734000	pgACC_svs_verse_te20_tm10	3000.000000	20.000000	128.000000	10.000000	20.000000	15.000000			fy78_3_Messung_MRS_PGACC	0.022	47	297.138	43300	0.69	0.67	2.891	6%	0.331	5.544	2%	0.634	1.985	8%	0.227	7.529	3%	0.861	1.464	8%	0.167	8.446	1%	0.966			
fy78_2113	20130925	143044.718000	pgACC_svs_verse_te20_tm10	3000.000000	20.000000	128.000000	10.000000	20.000000	15.000000			gc03_1_Messung_MRS_PGACC	0.027	33	297.138	43300	0.69	0.67	4.724	7%	0.598	2.316	7%	0.293	1.485	11%	0.188	3.801	6%	0.481	0.776	19%	9.8E-02	7.448	2%	0.942			
gc03_2325	20131008	124921.000000	pgACC_svs_verse_te20_tm10	3000.000000	20.000000	128.000000	10.000000	20.000000	15.000000			gc03_2_Messung_MRS_PGACC	0.027	35	297.138	43300	0.69	0.67	4.202	6%	0.509	3.989	5%	0.483	0.637	27%	7.7E-02	4.626	5%	0.560	0.382	35%	4.6E-02	7.578	3%	0.918			
gc03_2327	20131008	163835.937000	pgACC_svs_verse_te20_tm10	3000.000000	20.000000	128.000000	10.000000	20.000000	15.000000			gc03_3_Messung_MRS_PGACC	0.022	33	297.138	43300	0.69	0.67	2.902	8%	0.294	5.169	3%	0.524	2.768	6%	0.281	7.937	3%	0.805	1.430	11%	0.145	7.909	2%	0.802			
gc03_2329	20131009	154833.703000	pgACC_svs_verse_te20_tm10	3000.000000	20.000000	128.000000	10.000000	20.000000	15.000000			go11_1_Messung_MRS_PGACC	0.022	43	297.138	43300	0.69	0.67	4.083	5%	0.438	5.531	4%	0.593	1.771	10%	0.190	7.303	4%	0.783	1.939	8%	0.208	6.576	5%	0.705			
go11_2212	20130724	125506.468000	pgACC_svs_verse_te20_tm10	3000.000000	20.000000	128.000000	10.000000	20.000000	15.000000			go11_2_Messung_MRS_PGACC	0.022	37	297.138	43300	0.69	0.67	3.213	7%	0.326	5.737	3%	0.583	2.460	9%	0.250	8.196	4%	0.832	2.657	6%	0.270	8.256	2%	0.838			
go11_2213	20130724	153952.531000	pgACC_svs_verse_te20_tm10	3000.000000	20.000000	128.000000	10.000000	20.000000	15.000000			go11_3_Messung_MRS_PGACC	0.032	44	297.138	43300	0.69	0.67	5.655	11%	0.641	5.540	3%	0.628	1.848	11%	0.210	7.388	4%	0.838	1.101	13%	0.125	9.022	2%	1.023			
go11_2217	20130725	143725.609000	pgACC_svs_verse_te20_tm10	3000.000000	20.000000	128.000000	10.000000	20.000000	15.000000			gs63_1_Messung_MRS_PGACC	0.016	48	297.138	43300	0.69	0.67	3.581	5%	0.402	5.039	3%	0.566	2.328	7%	0.262	7.367	3%	0.828	1.179	10%	0.132	8.242	1%	0.926			
gs63_1976	20130305	142352.765000	pgACC_svs_verse_te20_tm10	3000.000000	20.000000	128.000000	10.000000	20.000000	15.000000			gs63_2_Messung_MRS_PGACC	0.027	47	297.138	43300	0.69	0.67	5.635	5%	0.706	4.311	4%	0.540	2.523	5%	0.316	6.834	3%	0.856	1.434	8%	0.180	8.857	1%	1.110			
gs63_1978	20130305	172159.375000	pgACC_svs_verse_te20_tm10	3000.000000	20.000000	128.000000	10.000000	20.000000	15.000000			gs63_3_Messung_MRS_PGACC	0.016	49	297.138	43300	0.69	0.67	3.144	6%	0.326	4.614	4%	0.478	2.059	8%	0.213	6.673	3%	0.692	1.386	9%	0.144	8.407	3%	0.871			
gs63_1981	20130306	160445.468000	pgACC_svs_verse_te20_tm10	3000.000000	20.000000	128.000000	10.000000	20.000000	15.000000			ha96_1_Messung_MRS_PGACC	0.016	41	297.138	43300	0.69	0.67	3.681	7%	0.372	5.750	3%	0.582	1.439	14%	0.146	7.189	4%	0.727	1.461	12%	0.148	9.048	2%	0.916			
ha96_2264	20130819	124811.453000	pgACC_svs_verse_te20_tm10	3000.000000	20.000000	128.000000	10.000000	20.000000	15.000000			ha96_2_Messung_MRS_PGACC	0.022	52	297.138	43300	0.69	0.67	1.044	5%	0.421	1.556	3%	0.628	0.480	10%	0.194	2.036	3%	0.822	0.438	8%	0.177	2.259	2%	0.912			
ha96_2266	20130819	154446.843000	pgACC_svs_verse_te20_tm10_h20	15000.000000	20.000000	1.000000	10.000000	20.000000	15.000000			ha96_2266	20130819	154412.375000	pgACC_svs_verse_te20_tm10	3000.000000	20.000000	128.000000	10.000000	20.000000	15.000000			ha96_3_Messung_MRS_PGACC	0.022	48	297.138	43300	0.69	0.67	3.837	4%	0.430	7.778	2%	0.871	1.272	10%	0.142	9.050	3%	1.013	2.326	5%	0.260	8.887	1%	0.995			
ha96_2268	20130820	144158.328000	pgACC_svs_verse_te20_tm10	3000.000000	20.000000	128.000000	10.000000	20.000000	15.000000			hq87_1_Messung_MRS_PGACC	0.016	47	297.138	43300	0.69	0.67	3.371	5%	0.369	5.360	4%	0.586	1.953	10%	0.214	7.313	4%	0.800	1.426	9%	0.156	8.724	2%	0.955			
hq87_1952	20130219	125512.890000	pgACC_svs_verse_te20_tm10	3000.000000	20.000000	128.000000	10.000000	20.000000	15.000000			hq87_2_Messung_MRS_PGACC	0.016	42	297.138	43300	0.69	0.67	3.111	6%	0.331	7.264	2%	0.772	2.257	6%	0.240	9.522	3%	1.012	2.123	8%	0.226	8.147	2%	0.866			
hq87_1954	20130219	160502.546000	pgACC_svs_verse_te20_tm10	3000.000000	20.000000	128.000000	10.000000	20.000000	15.000000			hq87_3_Messung_MRS_PGACC	0.016	42	297.138	43300	0.69	0.67	3.682	5%	0.391	5.424	3%	0.577	1.986	7%	0.211	7.410	3%	0.788	1.010	11%	0.107	8.291	3%	0.881			
hq87_1957	20130220	144245.531000	pgACC_svs_verse_te20_tm10	3000.000000	20.000000	128.000000	10.000000	20.000000	15.000000			hr27_1_Messung_MRS_PGACC	0.027	39	297.138	43300	0.69	0.67	4.077	6%	0.483	4.629	4%	0.548	1.881	8%	0.223	6.511	4%	0.771	1.486	8%	0.176	5.793	7%	0.686			
hr27_2000	20130402	133405.437000	pgACC_svs_verse_te20_tm10	3000.000000	20.000000	128.000000	10.000000	20.000000	15.000000			hr27_2_Messung_MRS_PGACC	0.027	48	297.138	43300	0.69	0.67	2.651	6%	0.291	4.500	4%	0.494	2.267	6%	0.249	6.767	3%	0.743	1.557	7%	0.171	8.136	3%	0.893			
hr27_2002	20130402	163516.781000	pgACC_svs_verse_te20_tm10	3000.000000	20.000000	128.000000	10.000000	20.000000	15.000000			hr27_3_Messung_MRS_PGACC	0.016	40	297.138	43300	0.69	0.67	2.747	6%	0.304	5.372	2%	0.595	1.546	9%	0.171	6.918	3%	0.766	1.642	8%	0.182	7.799	2%	0.863			
hr27_2006	20130403	155804.031000	pgACC_svs_verse_te20_tm10	3000.000000	20.000000	128.000000	10.000000	20.000000	15.000000			ia45_1_Messung_MRS_PGACC	0.022	48	297.138	43300	0.69	0.67	4.251	4%	0.437	6.211	3%	0.639	2.427	7%	0.250	8.638	3%	0.889	1.587	9%	0.163	9.521	2%	0.980			
ia45_1784	20121120	124332.765000	pgACC_svs_verse_te20_tm10	3000.000000	20.000000	128.000000	10.000000	20.000000	15.000000			ia45_2_Messung_MRS_PGACC	0.022	52	297.138	43300	0.69	0.67	4.360	4%	0.447	7.285	2%	0.747	3.541	5%	0.363	10.826	2%	1.110	1.800	7%	0.185	9.451	2%	0.969			
ia45_1786	20121120	153326.546000	pgACC_svs_verse_te20_tm10	3000.000000	20.000000	128.000000	10.000000	20.000000	15.000000			ia45_3_Messung_MRS_PGACC	0.022	43	297.138	43300	0.69	0.67	3.349	6%	0.335	4.325	5%	0.432	3.450	5%	0.345	7.775	3%	0.777	1.411	10%	0.141	8.863	2%	0.886			
ia45_1791	20121121	145512.000000	pgACC_svs_verse_te20_tm10	3000.000000	20.000000	128.000000	10.000000	20.000000	15.000000			id12_1_Messung_MRS_PGACC	0.016	47	297.138	43300	0.69	0.67	2.756	6%	0.301	6.035	3%	0.659	0.826	20%	9.0E-02	6.862	4%	0.750	1.466	10%	0.160	9.716	2%	1.061			
id12_2017	20130409	124231.812000	pgACC_svs_verse_te20_tm10	3000.000000	20.000000	128.000000	10.000000	20.000000	15.000000			id12_2_Messung_MRS_PGACC	0.016	44	297.138	43300	0.69	0.67	3.010	5%	0.350	5.712	3%	0.664	1.807	8%	0.210	7.519	3%	0.874	1.363	10%	0.158	8.685	1%	1.010			
id12_2019	20130409	155851.156000	pgACC_svs_verse_te20_tm10	3000.000000	20.000000	128.000000	10.000000	20.000000	15.000000			id12_3_Messung_MRS_PGACC	0.016	42	297.138	43300	0.69	0.67	3.215	6%	0.382	4.959	3%	0.590	1.556	12%	0.185	6.515	4%	0.774	1.485	11%	0.176	8.906	2%	1.059			
id12_2024	20130410	145031.140000	pgACC_svs_verse_te20_tm10	3000.000000	20.000000	128.000000	10.000000	20.000000	15.000000			il04_1_Messung_MRS_PGACC	0.022	49	297.138	43300	0.69	0.67	2.872	6%	0.316	5.433	3%	0.597	3.051	5%	0.335	8.483	3%	0.933	1.681	7%	0.185	8.021	2%	0.882			
il04_2099	20130917	125420.671000	pgACC_svs_verse_te20_tm10	3000.000000	20.000000	128.000000	10.000000	20.000000	15.000000			il04_2_Messung_MRS_PGACC	0.011	48	297.138	43300	0.69	0.67	3.501	4%	0.384	6.197	2%	0.679	2.092	7%	0.229	8.290	3%	0.908	1.533	8%	0.168	8.394	1%	0.920			
il04_2100	20130917	162428.609000	pgACC_svs_verse_te20_tm10	3000.000000	20.000000	128.000000	10.000000	20.000000	15.000000			il04_3_Messung_MRS_PGACC	0.022	49	297.138	43300	0.69	0.67	3.688	5%	0.407	5.337	3%	0.588	2.644	6%	0.291	7.981	3%	0.880	1.798	7%	0.198	8.236	2%	0.908			
il04_2103	20130918	143417.625000	pgACC_svs_verse_te20_tm10	3000.000000	20.000000	128.000000	10.000000	20.000000	15.000000			ju09_1_Messung_MRS_PGACC	0.016	48	297.138	43300	0.69	0.67	3.225	5%	0.384	6.406	2%	0.763	2.461	7%	0.293	8.868	3%	1.056	1.586	9%	0.189	8.490	2%	1.011			
ju09_1966	20130226	134838.187000	pgACC_svs_verse_te20_tm10	3000.000000	20.000000	128.000000	10.000000	20.000000	15.000000			ju09_2_Messung_MRS_PGACC	0.022	47	297.138	43300	0.69	0.67	3.153	6%	0.358	5.519	3%	0.627	3.154	6%	0.359	8.673	3%	0.986	1.875	7%	0.213	8.888	2%	1.010			
ju09_1968	20130226	171908.203000	pgACC_svs_verse_te20_tm10	3000.000000	20.000000	128.000000	10.000000	20.000000	15.000000			ju09_3_Messung_MRS_PGACC	0.022	52	297.138	43300	0.69	0.67	3.420	5%	0.362	5.723	3%	0.606	2.068	7%	0.219	7.791	3%	0.825	2.373	6%	0.251	7.797	2%	0.825			
qe30_1972	20130227	175908.031000	pgACC_svs_verse_te20_tm10	3000.000000	20.000000	128.000000	10.000000	20.000000	15.000000			kh95_1_Messung_MRS_PGACC	0.027	33	297.138	43300	0.69	0.67	3.840	8%	0.401	4.594	5%	0.479	3.203	6%	0.334	7.797	3%	0.813	2.232	7%	0.233	8.738	3%	0.911			
kh95_2177	20130709	125310.562000	pgACC_svs_verse_te20_tm10	3000.000000	20.000000	128.000000	10.000000	20.000000	15.000000			kh95_2_Messung_MRS_PGACC	0.016	26	297.138	43300	0.69	0.67	2.006	9%	0.315	4.892	3%	0.768	0.863	21%	0.136	5.756	5%	0.904	0.658	28%	0.103	6.147	4%	0.965			
kh95_2179	20130709	154355.046000	pgACC_svs_verse_te20_tm10	3000.000000	20.000000	128.000000	10.000000	20.000000	15.000000			kh95_3_Messung_MRS_PGACC	0.032	32	297.138	43300	0.69	0.67	3.857	7%	0.406	6.560	3%	0.691	2.377	8%	0.250	8.937	3%	0.942	2.262	9%	0.238	9.228	2%	0.972			
kh95_2185	20130710	152609.500000	pgACC_svs_verse_te20_tm10	3000.000000	20.000000	128.000000	10.000000	20.000000	15.000000			me21_1_Messung_MRS_PGACC	0.016	41	297.138	43300	0.69	0.67	3.364	6%	0.374	5.941	3%	0.661	2.219	10%	0.247	8.160	3%	0.908	1.928	8%	0.214	9.407	2%	1.047			
me21_2326	20131008	151307.421000	pgACC_svs_verse_te20_tm10	3000.000000	20.000000	128.000000	10.000000	20.000000	15.000000			me21_2_Messung_MRS_PGACC	0.016	41	297.138	43300	0.69	0.67	2.848	6%	0.348	7.368	2%	0.901	1.018	13%	0.125	8.386	3%	1.026	2.945	5%	0.360	7.471	4%	0.914			
me21_2328	20131008	180004.578000	pgACC_svs_verse_te20_tm10	3000.000000	20.000000	128.000000	10.000000	20.000000	15.000000			me21_3_Messung_MRS_PGACC	0.038	40	297.138	43300	0.69	0.67	4.205	6%	0.532	7.630	2%	0.966	0.462	32%	5.8E-02	8.092	3%	1.024	1.271	11%	0.161	8.739	1%	1.106			
me21_2330	20131009	164022.625000	pgACC_svs_verse_te20_tm10	3000.000000	20.000000	128.000000	10.000000	20.000000	15.000000			pl96_1883	20130114	141345.875000	pgACC_svs_verse_te20_tm10	3000.000000	20.000000	128.000000	10.000000	20.000000	15.000000			pl96_1_Messung_MRS_PGACC	0.016	54	297.138	43300	0.69	0.67	3.257	5%	0.372	5.533	2%	0.631	2.103	7%	0.240	7.636	3%	0.872	1.068	11%	0.122	8.880	2%	1.013			
pl96_1885	20130114	172255.109000	pgACC_svs_verse_te20_tm10	3000.000000	20.000000	128.000000	10.000000	20.000000	15.000000			pl96_2_Messung_MRS_PGACC	0.011	51	297.138	43300	0.69	0.67	3.350	5%	0.374	6.192	2%	0.691	1.552	9%	0.173	7.744	3%	0.864	1.551	8%	0.173	8.666	1%	0.967			
pl96_1889	20130115	170033.375000	pgACC_svs_verse_te20_tm10	3000.000000	20.000000	128.000000	10.000000	20.000000	15.000000			pl96_3_Messung_MRS_PGACC	0.016	54	297.138	43300	0.69	0.67	3.487	5%	0.397	6.248	2%	0.711	1.454	10%	0.166	7.702	3%	0.877	1.672	8%	0.190	9.057	1%	1.031			
qe30_1967	20130226	153146.718000	pgACC_svs_verse_te20_tm10	3000.000000	20.000000	128.000000	10.000000	20.000000	15.000000			qe30_1_Messung_MRS_PGACC	0.022	53	297.138	43300	0.69	0.67	3.894	5%	0.396	6.083	2%	0.619	1.383	11%	0.141	7.466	3%	0.759	1.369	9%	0.139	9.002	2%	0.915			
qe30_1969	20130226	185038.312000	pgACC_svs_verse_te20_tm10	3000.000000	20.000000	128.000000	10.000000	20.000000	15.000000			qe30_2_Messung_MRS_PGACC	0.016	52	297.138	43300	0.69	0.67	3.725	5%	0.380	5.710	2%	0.582	1.160	13%	0.118	6.870	3%	0.700	1.387	9%	0.141	9.348	1%	0.953			
ju09_1970	20130227	145140.218000	pgACC_svs_verse_te20_tm10	3000.000000	20.000000	128.000000	10.000000	20.000000	15.000000			qe30_3_Messung_MRS_PGACC	0.022	41	297.138	43300	0.69	0.67	3.744	6%	0.470	5.058	4%	0.635	3.751	5%	0.471	8.809	3%	1.107	2.603	6%	0.327	8.298	2%	1.042			
qt58_1975	20130305	125443.796000	pgACC_svs_verse_te20_tm10	3000.000000	20.000000	128.000000	10.000000	20.000000	15.000000			qt58_1_Messung_MRS_PGACC	0.027	46	297.138	43300	0.69	0.67	2.502	7%	0.280	4.619	4%	0.517	2.589	6%	0.290	7.208	3%	0.807	1.498	8%	0.168	7.027	6%	0.787			
qt58_1977	20130305	154326.718000	pgACC_svs_verse_te20_tm10	3000.000000	20.000000	128.000000	10.000000	20.000000	15.000000			qt58_2_Messung_MRS_PGACC	0.016	36	297.138	43300	0.69	0.67	2.826	8%	0.303	5.519	3%	0.591	1.345	15%	0.144	6.863	4%	0.735	1.842	9%	0.197	7.990	3%	0.856			
qt58_1980	20130306	144731.359000	pgACC_svs_verse_te20_tm10	3000.000000	20.000000	128.000000	10.000000	20.000000	15.000000			qt58_3_Messung_MRS_PGACC	0.016	47	297.138	43300	0.69	0.67	3.132	5%	0.371	5.793	2%	0.686	1.897	8%	0.225	7.689	3%	0.910	1.723	8%	0.204	8.371	2%	0.991			
sc17_2018	20130409	142908.203000	pgACC_svs_verse_te20_tm10	3000.000000	20.000000	128.000000	10.000000	20.000000	15.000000			sc17_1_Messung_MRS_PGACC	0.027	41	297.138	43300	0.69	0.67	4.291	6%	0.437	7.925	3%	0.807	1.860	10%	0.189	9.785	3%	0.996	2.232	7%	0.227	8.003	2%	0.815			
sc17_2020	20130409	172351.781000	pgACC_svs_verse_te20_tm10	3000.000000	20.000000	128.000000	10.000000	20.000000	15.000000			sc17_2_Messung_MRS_PGACC	0.022	43	297.138	43300	0.69	0.67	3.635	6%	0.361	6.516	3%	0.648	3.112	6%	0.309	9.628	3%	0.957	1.571	9%	0.156	8.677	2%	0.862			
sc17_2025	20130410	160654.765000	pgACC_svs_verse_te20_tm10	3000.000000	20.000000	128.000000	10.000000	20.000000	15.000000			sc17_3_Messung_MRS_PGACC	0.027	49	297.138	43300	0.69	0.67	4.054	6%	0.410	4.605	4%	0.466	2.109	8%	0.213	6.713	4%	0.679	1.242	11%	0.126	9.246	2%	0.935			
sj51_1882	20130114	125643.687000	pgACC_svs_verse_te20_tm10	3000.000000	20.000000	128.000000	10.000000	20.000000	15.000000			sj51_1_Messung_MRS_PGACC	0.016	53	297.138	43300	0.69	0.67	3.270	5%	0.354	5.232	2%	0.567	1.642	9%	0.178	6.874	3%	0.744	1.911	7%	0.207	8.674	2%	0.939			
sj51_1884	20130114	155242.578000	pgACC_svs_verse_te20_tm10	3000.000000	20.000000	128.000000	10.000000	20.000000	15.000000			sj51_2_Messung_MRS_PGACC	0.016	51	297.138	43300	0.69	0.67	2.987	5%	0.328	5.254	3%	0.577	1.896	8%	0.208	7.151	3%	0.785	1.517	8%	0.167	8.073	1%	0.886			
sj51_1888	20130115	153854.281000	pgACC_svs_verse_te20_tm10	3000.000000	20.000000	128.000000	10.000000	20.000000	15.000000			sj51_3_Messung_MRS_PGACC	0.016	51	297.138	43300	0.69	0.67	3.232	5%	0.349	5.634	2%	0.609	2.143	7%	0.232	7.777	3%	0.841	2.267	6%	0.245	8.764	1%	0.947			
sr21_2275	20130826	143617.828000	pgACC_svs_verse_te20_tm10	3000.000000	20.000000	128.000000	10.000000	20.000000	15.000000			sr21_1_Messung_MRS_PGACC	0.016	47	297.138	43300	0.69	0.67	2.165	7%	0.228	5.207	4%	0.549	3.362	5%	0.355	8.569	3%	0.904	2.196	6%	0.232	9.230	2%	0.974			
sr21_2277	20130826	175517.203000	pgACC_svs_verse_te20_tm10	3000.000000	20.000000	128.000000	10.000000	20.000000	15.000000			sr21_2_Messung_MRS_PGACC	0.016	47	297.138	43300	0.69	0.67	3.810	4%	0.425	5.227	4%	0.583	2.160	8%	0.241	7.387	3%	0.824	1.607	8%	0.179	8.529	3%	0.952			
sr21_2280	20130827	155917.140000	pgACC_svs_verse_te20_tm10	3000.000000	20.000000	128.000000	10.000000	20.000000	15.000000			sr21_3_Messung_MRS_PGACC	0.016	53	297.138	43300	0.69	0.67	2.717	6%	0.307	5.369	3%	0.606	1.713	10%	0.193	7.083	4%	0.800	1.205	11%	0.136	8.343	3%	0.942			
tl58_2336	20131015	140703.906000	pgACC_svs_verse_te20_tm10	3000.000000	20.000000	128.000000	10.000000	20.000000	15.000000			tl58_1_Messung_MRS_PGACC	0.032	43	297.138	43300	0.69	0.67	5.292	5%	0.640	6.159	2%	0.745	2.319	6%	0.280	8.477	2%	1.025	1.710	7%	0.207	7.793	2%	0.943			
tl58_2338	20131015	165121.468000	pgACC_svs_verse_te20_tm10	3000.000000	20.000000	128.000000	10.000000	20.000000	15.000000			tl58_2_Messung_MRS_PGACC	0.016	44	297.138	43300	0.69	0.67	3.859	5%	0.399	5.079	3%	0.525	0.803	20%	8.3E-02	5.882	4%	0.608	1.481	10%	0.153	9.179	2%	0.949			
tl58_2341	20131016	160549.781000	pgACC_svs_verse_te20_tm10	3000.000000	20.000000	128.000000	10.000000	20.000000	15.000000			tl58_3_Messung_MRS_PGACC	0.022	46	297.138	43300	0.69	0.67	3.724	5%	0.400	5.657	3%	0.607	1.756	9%	0.188	7.413	3%	0.796	1.998	7%	0.214	8.696	1%	0.933			
ty63_1739	20121029	130646.656000	pgACC_svs_verse_te20_tm10	3000.000000	20.000000	128.000000	10.000000	20.000000	15.000000			ty63_1_Messung_MRS_PGACC	0.032	39	297.138	43300	0.69	0.67	4.672	22%	0.518	4.874	6%	0.541	1.899	12%	0.211	6.773	5%	0.752	1.215	14%	0.135	9.264	3%	1.028			
ty63_1741	20121029	155620.265000	pgACC_svs_verse_te20_tm10	3000.000000	20.000000	128.000000	10.000000	20.000000	15.000000			ty63_2_Messung_MRS_PGACC	0.043	33	297.138	43300	0.69	0.67	4.584	13%	0.494	3.187	10%	0.343	3.179	7%	0.342	6.366	5%	0.685	0.182	107%	2.0E-02	9.104	2%	0.980			
ty63_1745	20121030	144604.640000	pgACC_svs_verse_te20_tm10	3000.000000	20.000000	128.000000	10.000000	20.000000	15.000000			ty63_3_Messung_MRS_PGACC	0.027	42	297.138	43300	0.69	0.67	3.290	7%	0.358	4.308	5%	0.469	3.190	6%	0.347	7.498	4%	0.815	0.620	21%	6.7E-02	8.583	2%	0.933			
wx52_1916	20130130	140519.531000	pgACC_svs_verse_te20_tm10	3000.000000	20.000000	128.000000	10.000000	20.000000	15.000000			we81_1_Messung_MRS_PGACC	0.011	50	297.138	43300	0.69	0.67	3.397	5%	0.334	6.319	2%	0.621	2.528	7%	0.249	8.847	3%	0.870	1.419	10%	0.140	9.567	2%	0.941			
wx52_1918	20130130	171218.734000	pgACC_svs_verse_te20_tm10	3000.000000	20.000000	128.000000	10.000000	20.000000	15.000000			we81_2_Messung_MRS_PGACC	0.016	47	297.138	43300	0.69	0.67	3.032	6%	0.321	6.076	3%	0.644	1.676	10%	0.178	7.752	3%	0.822	1.485	10%	0.157	8.915	2%	0.945			
wx52_1920	20130131	160446.734000	pgACC_svs_verse_te20_tm10	3000.000000	20.000000	128.000000	10.000000	20.000000	15.000000			we81_3_Messung_MRS_PGACC	0.016	38	297.138	43300	0.69	0.67	3.734	5%	0.402	4.688	6%	0.504	2.124	11%	0.228	6.812	4%	0.733	1.313	13%	0.141	9.238	2%	0.994			
ww25_2274	20130826	131832.359000	pgACC_svs_verse_te20_tm10	3000.000000	20.000000	128.000000	10.000000	20.000000	15.000000			ww25_1_Messung_MRS_PGACC	0.016	47	297.138	43300	0.69	0.67	3.314	4%	0.401	4.864	3%	0.589	1.543	9%	0.187	6.407	3%	0.776	1.199	10%	0.145	7.536	1%	0.912			
ww25_2276	20130826	161543.453000	pgACC_svs_verse_te20_tm10	3000.000000	20.000000	128.000000	10.000000	20.000000	15.000000			ww25_2_Messung_MRS_PGACC	0.016	44	297.138	43300	0.69	0.67	3.639	4%	0.421	4.891	3%	0.566	1.654	9%	0.191	6.545	3%	0.757	1.690	7%	0.195	7.781	1%	0.900			
ww25_2279	20130827	144123.171000	pgACC_svs_verse_te20_tm10	3000.000000	20.000000	128.000000	10.000000	20.000000	15.000000			ww25_3_Messung_MRS_PGACC	0.016	47	297.138	43300	0.69	0.67	2.866	5%	0.324	4.122	4%	0.466	2.094	6%	0.237	6.217	3%	0.703	0.672	15%	7.6E-02	7.879	1%	0.890			
ww54_2200	20130718	120929.046000	pgACC_svs_verse_te20_tm10	3000.000000	20.000000	128.000000	10.000000	20.000000	15.000000			ww54_1_Messung_MRS_PGACC	0.016	32	297.138	43300	0.69	0.67	3.292	6%	0.371	3.345	7%	0.377	2.565	10%	0.289	5.910	7%	0.666	1.698	10%	0.191	7.172	3%	0.808			
ww54_2202	20130718	150503.843000	pgACC_svs_verse_te20_tm10	3000.000000	20.000000	128.000000	10.000000	20.000000	15.000000			ww54_2_Messung_MRS_PGACC	0.030		297.138	43300	0.69	0.67	0.000	999%	0.000	3.974	10%	1.131	5.658	11%	1.610	9.633	9%	2.741				3.386	9%	0.964			
ww54_2203	20130719	110942.359000	pgACC_svs_verse_te20_tm10	3000.000000	20.000000	128.000000	10.000000	20.000000	15.000000			ww54_3_Messung_MRS_PGACC	0.011	47	297.138	43300	0.69	0.67	3.432	5%	0.373	6.396	3%	0.695	1.203	16%	0.131	7.599	4%	0.825	1.883	8%	0.204	8.222	2%	0.893			
we81_1915	20130130	124024.062000	pgACC_svs_verse_te20_tm10	3000.000000	20.000000	128.000000	10.000000	20.000000	15.000000			wx52_1_Messung_MRS_PGACC	0.022	40	297.138	43300	0.69	0.67	3.461	6%	0.372	4.885	4%	0.525	2.608	7%	0.280	7.494	4%	0.806	1.598	9%	0.172	7.740	3%	0.832			
we81_1917	20130130	152617.421000	pgACC_svs_verse_te20_tm10	3000.000000	20.000000	128.000000	10.000000	20.000000	15.000000			wx52_2_Messung_MRS_PGACC	0.011	47	297.138	43300	0.69	0.67	4.052	4%	0.418	6.251	2%	0.645	2.432	7%	0.251	8.683	3%	0.896	1.628	9%	0.168	8.579	2%	0.885			
wx52_1920	20130131	160446.734000	pgACC_svs_verse_te20_tm10	3000.000000	20.000000	128.000000	10.000000	20.000000	15.000000			wx52_3_Messung_MRS_PGACC	0.016	38	297.138	43300	0.69	0.67	3.734	5%	0.402	4.688	6%	0.504	2.124	11%	0.228	6.812	4%	0.733	1.313	13%	0.141	9.238	2%	0.994			
xc25_1904	20130122	143038.734000	pgACC_svs_verse_te20_tm10	3000.000000	20.000000	128.000000	10.000000	20.000000	15.000000			xc25_1_Messung_MRS_PGACC	0.016	41	297.138	43300	0.69	0.67	3.408	6%	0.356	5.356	3%	0.559	1.510	12%	0.158	6.866	4%	0.717	1.702	9%	0.178	7.676	4%	0.801			
xc25_1905	20130122	172337.250000	pgACC_svs_verse_te20_tm10	3000.000000	20.000000	128.000000	10.000000	20.000000	15.000000			xc25_2_Messung_MRS_PGACC	0.022	43	297.138	43300	0.69	0.67	3.820	5%	0.395	4.598	4%	0.475	2.539	7%	0.262	7.138	4%	0.738	0.764	18%	7.9E-02	8.262	3%	0.854			
xc25_1906	20130123	164050.171000	pgACC_svs_verse_te20_tm10	3000.000000	20.000000	128.000000	10.000000	20.000000	15.000000			xc25_3_Messung_MRS_PGACC	0.016	43	297.138	43300	0.69	0.67	3.479	5%	0.418	5.234	2%	0.629	1.350	11%	0.162	6.583	3%	0.791	1.043	12%	0.125	8.207	1%	0.987			
xp38_1785	20121120	140536.734000	pgACC_svs_verse_te20_tm10	3000.000000	20.000000	128.000000	10.000000	20.000000	15.000000			xp38_1_Messung_MRS_PGACC	0.016	37	297.138	43300	0.69	0.67	3.465	6%	0.375	4.824	4%	0.523	1.803	11%	0.195	6.627	4%	0.718	1.098	13%	0.119	8.496	2%	0.920			
xp38_1787	20121120	164543.781000	pgACC_svs_verse_te20_tm10	3000.000000	20.000000	128.000000	10.000000	20.000000	15.000000			xp38_2_Messung_MRS_PGACC	0.016	45	297.138	43300	0.69	0.67	3.551	5%	0.372	5.547	2%	0.581	1.657	9%	0.174	7.204	3%	0.755	0.994	12%	0.104	8.902	1%	0.933			
xp38_1792	20121121	160658.328000	pgACC_svs_verse_te20_tm10	3000.000000	20.000000	128.000000	10.000000	20.000000	15.000000			xp38_3_Messung_MRS_PGACC	0.016	36	297.138	43300	0.69	0.67	3.698	6%	0.404	5.894	3%	0.643	1.134	16%	0.124	7.028	4%	0.767	1.952	8%	0.213	8.709	3%	0.950			
yh25_1939	20130212	124252.406000	pgACC_svs_verse_te20_tm10	3000.000000	20.000000	128.000000	10.000000	20.000000	15.000000			yh25_1_Messung_MRS_PGACC	0.032	45	297.138	43300	0.69	0.67	2.903	5%	0.341	4.662	3%	0.548	2.211	8%	0.260	6.873	4%	0.807	1.047	13%	0.123	7.500	2%	0.881			
yh25_1940	20130212	154231.984000	pgACC_svs_verse_te20_tm10	3000.000000	20.000000	128.000000	10.000000	20.000000	15.000000			yh25_2_Messung_MRS_PGACC	0.027	34	297.138	43300	0.69	0.67	4.123	8%	0.554	5.070	3%	0.681	2.152	8%	0.289	7.222	3%	0.970	0.356	50%	4.8E-02	7.322	2%	0.984			
yh25_1944	20130213	144308.328000	pgACC_svs_verse_te20_tm10	3000.000000	20.000000	128.000000	10.000000	20.000000	15.000000			yh25_3_Messung_MRS_PGACC	0.027	44	297.138	43300	0.69	0.67	3.045	6%	0.343	4.248	4%	0.479	2.426	7%	0.274	6.674	4%	0.753	2.301	6%	0.259	7.660	2%	0.864			
